Lab 4: Childcare Costs in California
…
Let’s start by focusing only on California.

2. Create a ca_childcare dataset of childcare costs in California, containing (1) county information and (2) all information from the childcare_costs dataset. Hint: There are 58 counties in CA and 11 years in the dataset. Therefore, your new dataset should have 53 x 11 = 638 observations.

Code

ca_childcare <- childcare_costs |>
  inner_join(counties,
             by = "county_fips_code") |>
  filter(state_name == "California")

ca_childcare

# A tibble: 638 × 64
   county_fips_code study_year unr_16 funr_16 munr_16 unr_20to64 funr_20to64
              <dbl>      <dbl>  <dbl>   <dbl>   <dbl>      <dbl>       <dbl>
 1             6001       2008   6.6     6.57    6.63        6.1         6.1
 2             6001       2009   7.71    7.53    7.86        7.2         7.1
 3             6001       2010   8.5     8.24    8.73        7.9         7.7
 4             6001       2011   9.21    8.87    9.51        8.7         8.4
 5             6001       2012   9.91    9.68   10.1         9.3         9.2
 6             6001       2013  10.3    10.2    10.5         9.7         9.6
 7             6001       2014   9.6     9.59    9.58        9           9.1
 8             6001       2015   8.26    8.44    8.11        7.8         8  
 9             6001       2016   7.11    7.34    6.91        6.7         7  
10             6001       2017   6.05    6.06    6.03        5.7         5.7
# ℹ 628 more rows
# ℹ 57 more variables: munr_20to64 <dbl>, flfpr_20to64 <dbl>,
#   flfpr_20to64_under6 <dbl>, flfpr_20to64_6to17 <dbl>,
#   flfpr_20to64_under6_6to17 <dbl>, mlfpr_20to64 <dbl>, pr_f <dbl>,
#   pr_p <dbl>, mhi_2018 <dbl>, me_2018 <dbl>, fme_2018 <dbl>, mme_2018 <dbl>,
#   total_pop <dbl>, one_race <dbl>, one_race_w <dbl>, one_race_b <dbl>,
#   one_race_i <dbl>, one_race_a <dbl>, one_race_h <dbl>, …
…
ca_childcare

# A tibble: 638 × 65
   county_fips_code study_year unr_16 funr_16 munr_16 unr_20to64 funr_20to64
              <dbl>      <dbl>  <dbl>   <dbl>   <dbl>      <dbl>       <dbl>
 1             6001       2008   6.6     6.57    6.63        6.1         6.1
 2             6001       2009   7.71    7.53    7.86        7.2         7.1
 3             6001       2010   8.5     8.24    8.73        7.9         7.7
 4             6001       2011   9.21    8.87    9.51        8.7         8.4
 5             6001       2012   9.91    9.68   10.1         9.3         9.2
 6             6001       2013  10.3    10.2    10.5         9.7         9.6
 7             6001       2014   9.6     9.59    9.58        9           9.1
 8             6001       2015   8.26    8.44    8.11        7.8         8  
 9             6001       2016   7.11    7.34    6.91        6.7         7  
10             6001       2017   6.05    6.06    6.03        5.7         5.7
# ℹ 628 more rows
# ℹ 58 more variables: munr_20to64 <dbl>, flfpr_20to64 <dbl>,
#   flfpr_20to64_under6 <dbl>, flfpr_20to64_6to17 <dbl>,
#   flfpr_20to64_under6_6to17 <dbl>, mlfpr_20to64 <dbl>, pr_f <dbl>,
#   pr_p <dbl>, mhi_2018 <dbl>, me_2018 <dbl>, fme_2018 <dbl>, mme_2018 <dbl>,
#   total_pop <dbl>, one_race <dbl>, one_race_w <dbl>, one_race_b <dbl>,
#   one_race_i <dbl>, one_race_a <dbl>, one_race_h <dbl>, …
…
ca_childcare_long |>
  mutate(care_type = factor(care_type, levels = c("mc_infant", "mc_toddler", "mc_preschool")),
         region = factor(region, levels = c("San Francisco Bay Area",
                                            "Orange",
                                            "Los Angeles",
                                            "Northern San Joaquin Valley",
                                            "Central Coast",
                                            "Inland Empire",
                                            "Superior California",
                                            "Southern San Joaquin Valley",
                                            "San Diego - Imperial",
                                            "North Coast")))

# A tibble: 1,914 × 64
   county_fips_code study_year unr_16 funr_16 munr_16 unr_20to64 funr_20to64
              <dbl>      <dbl>  <dbl>   <dbl>   <dbl>      <dbl>       <dbl>
 1             6001       2008   6.6     6.57    6.63        6.1         6.1
 2             6001       2008   6.6     6.57    6.63        6.1         6.1
 3             6001       2008   6.6     6.57    6.63        6.1         6.1
 4             6001       2009   7.71    7.53    7.86        7.2         7.1
 5             6001       2009   7.71    7.53    7.86        7.2         7.1
 6             6001       2009   7.71    7.53    7.86        7.2         7.1
 7             6001       2010   8.5     8.24    8.73        7.9         7.7
 8             6001       2010   8.5     8.24    8.73        7.9         7.7
 9             6001       2010   8.5     8.24    8.73        7.9         7.7
10             6001       2011   9.21    8.87    9.51        8.7         8.4
# ℹ 1,904 more rows
# ℹ 57 more variables: munr_20to64 <dbl>, flfpr_20to64 <dbl>,
#   flfpr_20to64_under6 <dbl>, flfpr_20to64_6to17 <dbl>,
#   flfpr_20to64_under6_6to17 <dbl>, mlfpr_20to64 <dbl>, pr_f <dbl>,
#   pr_p <dbl>, mhi_2018 <dbl>, me_2018 <dbl>, fme_2018 <dbl>, mme_2018 <dbl>,
#   total_pop <dbl>, one_race <dbl>, one_race_w <dbl>, one_race_b <dbl>,
#   one_race_i <dbl>, one_race_a <dbl>, one_race_h <dbl>, …
…
Used ChatGPT to understand how to name the faceted grids (https://chatgpt.com/share/6714c1d8-b09c-800e-9607-49483cc662cc)

Median Household Income vs. Childcare Costs for Infants

7. Create a scatterplot showing the relationship between median household income (expressed in 2018 dollars) and the full-time median weekly price charged for center-based childcare for an infant in California. Overlay a linear regression line (lm) to show the trend.

Code

ca_childcare |>
  inner_join(ca_childcare_long, 
             by = "region") |>
  filter(care_type == "mc_infant")

# A tibble: 67,518 × 128
   county_fips_code.x study_year.x unr_16.x funr_16.x munr_16.x unr_20to64.x
                <dbl>        <dbl>    <dbl>     <dbl>     <dbl>        <dbl>
 1               6001         2008      6.6      6.57      6.63          6.1
 2               6001         2008      6.6      6.57      6.63          6.1
 3               6001         2008      6.6      6.57      6.63          6.1
 4               6001         2008      6.6      6.57      6.63          6.1
 5               6001         2008      6.6      6.57      6.63          6.1
 6               6001         2008      6.6      6.57      6.63          6.1
 7               6001         2008      6.6      6.57      6.63          6.1
 8               6001         2008      6.6      6.57      6.63          6.1
 9               6001         2008      6.6      6.57      6.63          6.1
10               6001         2008      6.6      6.57      6.63          6.1
# ℹ 67,508 more rows
# ℹ 122 more variables: funr_20to64.x <dbl>, munr_20to64.x <dbl>,
#   flfpr_20to64.x <dbl>, flfpr_20to64_under6.x <dbl>,
#   flfpr_20to64_6to17.x <dbl>, flfpr_20to64_under6_6to17.x <dbl>,
#   mlfpr_20to64.x <dbl>, pr_f.x <dbl>, pr_p.x <dbl>, mhi_2018.x <dbl>,
#   me_2018.x <dbl>, fme_2018.x <dbl>, mme_2018.x <dbl>, total_pop.x <dbl>,
#   one_race.x <dbl>, one_race_w.x <dbl>, one_race_b.x <dbl>, …
…
